digraph "l3/Aux" {
  compound=true
  node [ fontsize="10", fontname="Helvetica"];
  edge [ labelfontsize="10", labelfontname="Helvetica"];
  subgraph clusterdir_6b5789e209b8e2397b4e5c5eb0f5e863 {
    graph [ bgcolor="#ddddee", pencolor="black", label="l3" fontname="Helvetica", fontsize="10", URL="dir_6b5789e209b8e2397b4e5c5eb0f5e863.html"]
  dir_90674ad3a9964f3ac843537d109db200 [shape=box, label="Aux", style="filled", fillcolor="#eeeeff", pencolor="black", URL="dir_90674ad3a9964f3ac843537d109db200.html"];
  }
}
