digraph "Graphical Class Hierarchy"
{
  edge [fontname="Helvetica",fontsize="10",labelfontname="Helvetica",labelfontsize="10"];
  node [fontname="Helvetica",fontsize="10",shape=record];
  rankdir="LR";
  Node1 [label="l4.element.element",height=0.2,width=0.4,color="black", fillcolor="white", style="filled",URL="$classl4_1_1element_1_1element.html"];
}
