digraph "labs/l2/Problem3" {
  compound=true
  node [ fontsize="10", fontname="Helvetica"];
  edge [ labelfontsize="10", labelfontname="Helvetica"];
  subgraph clusterdir_a22961e51d1f21fa776e8b6c719d7c20 {
    graph [ bgcolor="#ddddee", pencolor="black", label="l2" fontname="Helvetica", fontsize="10", URL="dir_a22961e51d1f21fa776e8b6c719d7c20.html"]
  dir_68f4625c465fb87fb261cf80f34de65e [shape=box, label="Problem3", style="filled", fillcolor="#eeeeff", pencolor="black", URL="dir_68f4625c465fb87fb261cf80f34de65e.html"];
  }
}
